…
``` r
mean_salary_countries <- df %>% 
  select(employee_residence, work_setting, salary_in_usd) %>%
  group_by(employee_residence, work_setting) %>%
  summarize(mean_salary = mean(salary_in_usd))
```

    ## `summarise()` has grouped output by 'employee_residence'. You can override
    ## using the `.groups` argument.

``` r
mean_salary_countries %>% arrange(desc(mean_salary), employee_residence)
```

    ## # A tibble: 145 × 3
    ## # Groups:   employee_residence [83]
    ##    employee_residence work_setting mean_salary
    ##    <chr>              <chr>              <dbl>
    ##  1 Qatar              Remote           300000 
    ##  2 Russia             Hybrid           230000 
    ##  3 Australia          In-person        215630.
    ##  4 Japan              In-person        214000 
    ##  5 Malaysia           Remote           200000 
    ##  6 Puerto Rico        Remote           167500 
    ##  7 United States      In-person        160911.
    ##  8 Puerto Rico        Hybrid           160000 
    ##  9 United States      Remote           154688.
    ## 10 Canada             In-person        154085.
    ## # ℹ 135 more rows

``` r
df %>% 
  group_by(employee_residence) %>% 
  summarize(people = n())
```

    ## # A tibble: 83 × 2
    ##    employee_residence     people
    ##    <chr>                   <int>
    ##  1 Algeria                     1
    ##  2 American Samoa              1
    ##  3 Andorra                     1
    ##  4 Argentina                   9
    ##  5 Armenia                     2
    ##  6 Australia                  21
    ##  7 Austria                     6
    ##  8 Belgium                     6
    ##  9 Bolivia                     2
    ## 10 Bosnia and Herzegovina      1
    ## # ℹ 73 more rows
…
